Group 5 期中專案競賽
…
# outter join 兩張表
StateAllFee <- full_join(CustomerStateFee, SellerStateFee, by = c("customer_state" = "seller_state")) %>% arrange(desc(sellerStateFreight))

StateAllFee

# A tibble: 27 x 5
   customer_state customerStateFr~ customerStatePr~ sellerStateFrei~
   <chr>                     <dbl>            <dbl>            <dbl>
 1 SP                      718723.         5202955.         1482488.
 2 MG                      270853.         1585308.          212595.
 3 PR                      117852.          683084.          197014.
 4 SC                       89660.          520553.          106547.
 5 RJ                      305589.         1824093.           93830.
 6 RS                      135523.          750304.           57243.
 7 BA                      100157.          511350.           19701.
 8 DF                       50626.          302604.           18494.
 9 GO                       53115.          294592.           12566.
10 PE                       59450.          262788.           12392.
# ... with 17 more rows, and 1 more variable: sellerStatePrice <dbl>
…
